<svg width="347" height="701" viewBox="0 0 347 701" fill="none" xmlns="http://www.w3.org/2000/svg">
<g filter="url(#filter0_d)">
<circle r="42.3552" transform="matrix(-0.757196 0.653187 0.653187 0.757196 164.804 395.353)" fill="white"/>
<circle r="42.3552" transform="matrix(-0.757196 0.653187 0.653187 0.757196 121.789 504.49)" fill="white"/>
<circle r="42.3552" transform="matrix(-0.757196 0.653187 0.653187 0.757196 164.254 283.953)" fill="white"/>
<circle r="42.3552" transform="matrix(-0.757196 0.653187 0.653187 0.757196 117.461 177.877)" fill="white"/>
<circle r="42.3552" transform="matrix(-0.757196 0.653187 0.653187 0.757196 33.3281 91.9749)" fill="white"/>
<circle r="42.3552" transform="matrix(-0.757196 0.653187 0.653187 0.757196 41.8056 584.979)" fill="white"/>
<circle r="27.6116" transform="matrix(-0.757196 0.653187 0.653187 0.757196 47.4201 222.46)" fill="white"/>
<circle r="27.6116" transform="matrix(-0.757196 0.653187 0.653187 0.757196 79.8068 296.816)" fill="white"/>
<circle r="27.6116" transform="matrix(-0.757196 0.653187 0.653187 0.757196 79.1936 376.8)" fill="white"/>
<circle r="27.6116" transform="matrix(-0.757196 0.653187 0.653187 0.757196 51.1574 453.553)" fill="white"/>
<circle r="27.6116" transform="matrix(-0.757196 0.653187 0.653187 0.757196 -6.7996 514.279)" fill="white"/>
</g>
<defs>
<filter id="filter0_d" x="-77.7422" y="0.237793" width="358.283" height="700.478" filterUnits="userSpaceOnUse" color-interpolation-filters="sRGB">
<feFlood flood-opacity="0" result="BackgroundImageFix"/>
<feColorMatrix in="SourceAlpha" type="matrix" values="0 0 0 0 0 0 0 0 0 0 0 0 0 0 0 0 0 0 127 0"/>
<feOffset dx="12" dy="12"/>
<feGaussianBlur stdDeviation="22"/>
<feColorMatrix type="matrix" values="0 0 0 0 0 0 0 0 0 0 0 0 0 0 0 0 0 0 0.04 0"/>
<feBlend mode="normal" in2="BackgroundImageFix" result="effect1_dropShadow"/>
<feBlend mode="normal" in="SourceGraphic" in2="effect1_dropShadow" result="shape"/>
</filter>
</defs>
</svg>
