<svg width="15" height="80" viewBox="0 0 15 80" fill="none" xmlns="http://www.w3.org/2000/svg">
<path d="M8.93577 67.7554V60.5806C10.7955 59.9584 12.1489 58.2182 12.1489 56.1474C12.1489 53.5516 10.036 51.4517 7.4363 51.4517C4.83655 51.4517 2.73339 53.5516 2.73339 56.1474C2.73339 58.2182 4.08682 59.9584 5.94656 60.5806V69.0679C5.94656 69.8942 6.6184 70.5553 7.4363 70.5553C9.20841 70.5553 10.6495 71.9942 10.6495 73.7636C10.6495 75.533 9.20841 76.9718 7.4363 76.9718C5.66419 76.9718 4.22313 75.533 4.22313 73.7636C4.22313 72.9372 3.55129 72.2761 2.73339 72.2761C1.9155 72.2761 1.24365 72.9372 1.24365 73.7636C1.24365 77.176 4.01866 79.9468 7.4363 79.9468C10.8539 79.9468 13.6289 77.176 13.6289 73.7636C13.6387 70.8664 11.6329 68.4262 8.93577 67.7554ZM5.08971 56.1474C5.08971 54.8544 6.14129 53.7947 7.44603 53.7947C8.75077 53.7947 9.79262 54.8544 9.79262 56.1474C9.79262 57.4404 8.74104 58.5001 7.4363 58.5001C6.13156 58.5001 5.08971 57.4501 5.08971 56.1474Z" fill="#FEFEFE"/>
<rect x="9.04639" y="0.0422363" width="3.21802" height="49.8223" transform="scale(-1 1)" fill="#FEFEFE"/>
<path d="M2.88153 56.5646C2.88153 59.1576 4.98765 61.2649 7.59213 61.2649C10.1966 61.2649 12.3027 59.1576 12.3027 56.5646C12.3027 53.9716 10.1966 51.8643 7.59213 51.8643C4.98765 51.8643 2.88153 53.9716 2.88153 56.5646Z" stroke="#FEFEFE" stroke-width="4"/>
</svg>
