<svg width="219" height="71" viewBox="0 0 219 71" fill="none" xmlns="http://www.w3.org/2000/svg">
<path fill-rule="evenodd" clip-rule="evenodd" d="M34.6384 33.6965C42.9587 50.2407 51.5268 60.6028 60.2365 67.8738C58.0414 62.2537 60.4489 58.3548 66.8573 56.3175C63.3522 61.0946 61.8297 64.6774 62.113 69.4193C61.7943 69.7706 60.8738 70.6839 60.5551 71C55.6692 66.0824 45.8973 58.706 33.5055 34.2936C33.1514 33.556 34.1074 32.7832 34.6384 33.6965Z" fill="#007D39"/>
<path fill-rule="evenodd" clip-rule="evenodd" d="M63.0274 17.5302C61.9889 15.6464 59.5897 14.971 57.7277 16.0374C55.8299 17.0682 55.1495 19.4496 56.2238 21.2979C57.2622 23.1817 59.6614 23.8571 61.5234 22.7908C63.3854 21.76 64.0658 19.4141 63.0274 17.5302Z" fill="#FFE800"/>
<path fill-rule="evenodd" clip-rule="evenodd" d="M59.3285 53.989C60.6516 52.3158 60.4013 49.8593 58.6848 48.542C57.0042 47.2248 54.5368 47.474 53.2137 49.1828C51.8906 50.8561 52.1409 53.3126 53.8574 54.6299C55.5023 55.9471 57.9697 55.6979 59.3285 53.989Z" fill="#FFE800"/>
<path fill-rule="evenodd" clip-rule="evenodd" d="M1.27057 23.896C1.87669 21.8372 4.01594 20.6303 6.08388 21.2337C8.15183 21.8372 9.36407 23.967 8.75795 26.0258C8.15183 28.0847 6.01258 29.2916 3.94463 28.6881C1.87669 28.1202 0.664448 25.9549 1.27057 23.896Z" fill="#FFE800"/>
<path fill-rule="evenodd" clip-rule="evenodd" d="M65.5861 42.6665C66.1922 40.6076 64.98 38.4778 62.912 37.8744C60.8441 37.2709 58.7048 38.4778 58.0987 40.5367C57.4926 42.5955 58.7048 44.7253 60.7728 45.3288C62.8407 45.9322 64.98 44.7253 65.5861 42.6665Z" fill="#FFE800"/>
<path fill-rule="evenodd" clip-rule="evenodd" d="M0.0266575 37.6118C-0.223236 35.4776 1.31182 33.5568 3.45376 33.3078C5.5957 33.0588 7.52345 34.5883 7.77334 36.7226C8.02324 38.8568 6.48818 40.7776 4.34624 41.0266C2.2043 41.24 0.276551 39.7461 0.0266575 37.6118Z" fill="#FFE800"/>
<path fill-rule="evenodd" clip-rule="evenodd" d="M66.831 30.0635C66.5811 27.931 64.6533 26.4027 62.5114 26.6515C60.3694 26.9003 58.8344 28.8196 59.0843 30.9521C59.3342 33.0846 61.2619 34.6129 63.4039 34.3641C65.5458 34.1153 67.0809 32.196 66.831 30.0635Z" fill="#FFE800"/>
<path fill-rule="evenodd" clip-rule="evenodd" d="M23.9942 65.2975C26.0655 65.901 28.2082 64.6941 28.8153 62.6352C29.4224 60.5764 28.2082 58.4466 26.1369 57.8431C24.0656 57.2397 21.9229 58.4466 21.3158 60.5054C20.7444 62.5642 21.9229 64.6941 23.9942 65.2975Z" fill="#FFE800"/>
<path fill-rule="evenodd" clip-rule="evenodd" d="M42.8554 1.265C44.9233 1.86845 46.1356 3.99827 45.5294 6.0571C44.9233 8.11593 42.7841 9.32283 40.7161 8.71938C38.6482 8.11593 37.4359 5.98611 38.0421 3.92728C38.6482 1.86845 40.7874 0.661547 42.8554 1.265Z" fill="#FFE800"/>
<path fill-rule="evenodd" clip-rule="evenodd" d="M12.6198 60.1767C14.3029 61.494 16.7738 61.2448 18.0988 59.5359C19.4238 57.8626 19.1731 55.4061 17.4542 54.0889C15.7711 52.7716 13.3002 53.0208 11.9752 54.7297C10.6502 56.3674 10.9367 58.8239 12.6198 60.1767Z" fill="#FFE800"/>
<path fill-rule="evenodd" clip-rule="evenodd" d="M54.2347 7.49633C55.9202 8.81547 56.2071 11.2755 54.8802 12.9512C53.5533 14.6268 51.0789 14.912 49.3934 13.5929C47.7079 12.2738 47.421 9.81374 48.7479 8.13808C50.0748 6.42676 52.5492 6.17719 54.2347 7.49633Z" fill="#FFE800"/>
<path fill-rule="evenodd" clip-rule="evenodd" d="M7.52814 12.5645C6.20506 14.2401 6.45537 16.7002 8.17181 18.0193C9.85249 19.3384 12.3199 19.0889 13.6429 17.3775C14.966 15.7019 14.7157 13.2419 12.9993 11.9227C11.3186 10.6036 8.85123 10.8888 7.52814 12.5645Z" fill="#FFE800"/>
<path fill-rule="evenodd" clip-rule="evenodd" d="M17.6074 4.94362C15.7153 5.9744 15.0369 8.35586 16.108 10.2042C17.1433 12.088 19.5353 12.7633 21.3918 11.697C23.284 10.6662 23.9623 8.28477 22.8912 6.43647C21.8559 4.55264 19.4996 3.8773 17.6074 4.94362Z" fill="#FFE800"/>
<path fill-rule="evenodd" clip-rule="evenodd" d="M37.775 66.536C39.9169 66.2872 41.4519 64.3679 41.2021 62.2354C40.9522 60.1029 39.0244 58.5746 36.8825 58.8234C34.7405 59.0722 33.2055 60.9915 33.4554 63.124C33.7053 65.2565 35.633 66.7848 37.775 66.536Z" fill="#FFE800"/>
<path fill-rule="evenodd" clip-rule="evenodd" d="M29.7035 0.0265401C27.8676 0.275332 26.5518 2.19458 26.766 4.32708C26.9802 6.45958 28.6326 7.98788 30.4685 7.73908C32.3045 7.49029 33.6202 5.57104 33.406 3.43854C33.1918 1.30604 31.5395 -0.222252 29.7035 0.0265401Z" fill="#FFE800"/>
<path fill-rule="evenodd" clip-rule="evenodd" d="M15.0888 18.795C16.0339 17.6078 17.7841 17.3983 19.0092 18.3411C20.1993 19.2839 20.4094 21.0297 19.4643 22.2519C18.5192 23.4391 16.769 23.6486 15.5438 22.7058C14.3187 21.7281 14.1437 19.9822 15.0888 18.795Z" fill="#FFE800"/>
<path fill-rule="evenodd" clip-rule="evenodd" d="M21.4939 12.5513C22.8258 11.8185 24.5433 12.2721 25.2793 13.6331C26.0154 14.9591 25.5597 16.669 24.1928 17.4018C22.8609 18.1346 21.1434 17.681 20.4073 16.3201C19.6713 14.994 20.1269 13.319 21.4939 12.5513Z" fill="#FFE800"/>
<path fill-rule="evenodd" clip-rule="evenodd" d="M51.7775 47.7675C52.7245 46.5803 52.5141 44.8344 51.3216 43.8567C50.1291 42.9139 48.3755 43.1234 47.3935 44.3106C46.4465 45.4978 46.657 47.2437 47.8494 48.2214C49.0419 49.1642 50.7955 48.9547 51.7775 47.7675Z" fill="#FFE800"/>
<path fill-rule="evenodd" clip-rule="evenodd" d="M10.1338 27.5391C10.5542 26.0741 12.0958 25.2021 13.5673 25.6206C15.0388 26.0392 15.9147 27.574 15.4943 29.039C15.0738 30.504 13.5323 31.3761 12.0608 30.9575C10.5893 30.5389 9.71336 29.0041 10.1338 27.5391Z" fill="#FFE800"/>
<path fill-rule="evenodd" clip-rule="evenodd" d="M56.7203 40.1321C57.1404 38.6684 56.3003 37.135 54.7951 36.7168C53.325 36.2987 51.7848 37.135 51.3648 38.6336C50.9447 40.0972 51.7848 41.6306 53.29 42.0488C54.7601 42.467 56.3003 41.6306 56.7203 40.1321Z" fill="#FFE800"/>
<path fill-rule="evenodd" clip-rule="evenodd" d="M10.0468 36.3685C9.8717 34.8341 10.9576 33.4741 12.4988 33.2997C14.04 33.1253 15.4061 34.2064 15.5812 35.7408C15.7564 37.2753 14.6705 38.6353 13.1293 38.8097C11.5881 38.9841 10.222 37.903 10.0468 36.3685Z" fill="#FFE800"/>
<path fill-rule="evenodd" clip-rule="evenodd" d="M56.8102 31.3033C56.6351 29.7689 55.2689 28.6878 53.7275 28.8622C52.1862 29.0366 51.1002 30.3966 51.2754 31.931C51.4505 33.4655 52.8167 34.5466 54.3581 34.3722C55.8644 34.1978 56.9854 32.8378 56.8102 31.3033Z" fill="#FFE800"/>
<path fill-rule="evenodd" clip-rule="evenodd" d="M12.6065 45.1692C11.8705 43.8414 12.3261 42.1293 13.6931 41.3955C15.025 40.6617 16.7425 41.116 17.4786 42.4787C18.2146 43.8065 17.759 45.5186 16.392 46.2524C15.0601 46.9861 13.3777 46.497 12.6065 45.1692Z" fill="#FFE800"/>
<path fill-rule="evenodd" clip-rule="evenodd" d="M54.235 22.5046C53.5001 21.175 51.7851 20.6852 50.4552 21.42C49.1253 22.1547 48.6353 23.8691 49.3703 25.1986C50.1052 26.5281 51.8201 27.0179 53.1501 26.2832C54.515 25.5135 55.005 23.8341 54.235 22.5046Z" fill="#FFE800"/>
<path fill-rule="evenodd" clip-rule="evenodd" d="M36.5297 56.5602C38.0709 56.3858 39.1568 55.0256 38.9816 53.491C38.8065 51.9565 37.4404 50.8753 35.8992 51.0497C34.358 51.2241 33.2721 52.5843 33.4472 54.1188C33.6224 55.6185 35.0235 56.7345 36.5297 56.5602Z" fill="#FFE800"/>
<path fill-rule="evenodd" clip-rule="evenodd" d="M30.3276 10.0028C31.869 9.82845 33.2352 10.9095 33.4103 12.444C33.5855 13.9784 32.4995 15.3384 30.9582 15.5128C29.4168 15.6872 28.0506 14.6061 27.8755 13.0717C27.7003 11.5372 28.8213 10.1772 30.3276 10.0028Z" fill="#FFE800"/>
<path fill-rule="evenodd" clip-rule="evenodd" d="M26.5384 56.4707C28.0125 56.8888 29.5567 56.0525 29.9778 54.5539C30.399 53.0903 29.5567 51.5569 28.0475 51.1387C26.5735 50.7205 25.0293 51.5569 24.6081 53.0554C24.222 54.5191 25.0644 56.0525 26.5384 56.4707Z" fill="#FFE800"/>
<path fill-rule="evenodd" clip-rule="evenodd" d="M40.3105 11.1988C41.782 11.6173 42.6579 13.1521 42.2374 14.6171C41.817 16.0822 40.2754 16.9542 38.8039 16.5356C37.3324 16.117 36.4565 14.5823 36.877 13.1172C37.2974 11.6522 38.839 10.7802 40.3105 11.1988Z" fill="#FFE800"/>
<path fill-rule="evenodd" clip-rule="evenodd" d="M18.8778 51.5496C20.0702 52.4923 21.8238 52.2828 22.8059 51.0956C23.7528 49.9084 23.5424 48.1625 22.3499 47.1848C21.1575 46.242 19.4038 46.4515 18.4218 47.6388C17.4749 48.826 17.6853 50.5719 18.8778 51.5496Z" fill="#FFE800"/>
<path fill-rule="evenodd" clip-rule="evenodd" d="M47.9788 15.0227C49.1713 15.9636 49.3817 17.7061 48.4348 18.9258C47.4878 20.1107 45.7342 20.3198 44.5067 19.3788C43.3142 18.4379 43.1038 16.6954 44.0507 15.4757C44.9977 14.256 46.7513 14.0817 47.9788 15.0227Z" fill="#FFE800"/>
<path fill-rule="evenodd" clip-rule="evenodd" d="M25.6589 19.1424C26.7432 18.5468 28.0893 18.919 28.6875 19.9986C29.2858 21.0781 28.9119 22.4183 27.8275 23.0139C26.7432 23.6095 25.3972 23.2372 24.7989 22.1577C24.2007 21.1154 24.5746 19.738 25.6589 19.1424Z" fill="#FFE800"/>
<path fill-rule="evenodd" clip-rule="evenodd" d="M20.5443 23.03C21.2889 22.0628 22.7036 21.914 23.6716 22.658C24.6395 23.4019 24.7885 24.8154 24.0439 25.7825C23.2993 26.7497 21.8845 26.8985 20.9166 26.1545C19.9486 25.3734 19.7624 23.9599 20.5443 23.03Z" fill="#FFE800"/>
<path fill-rule="evenodd" clip-rule="evenodd" d="M46.3273 43.5325C47.0746 42.5654 46.9251 41.1891 45.9537 40.408C44.9823 39.664 43.5999 39.8128 42.8153 40.78C42.0681 41.7471 42.2176 43.1234 43.189 43.9045C44.1604 44.6485 45.5427 44.4997 46.3273 43.5325Z" fill="#FFE800"/>
<path fill-rule="evenodd" clip-rule="evenodd" d="M17.8908 29.3411C18.1424 28.1541 19.0651 27.4864 19.9599 27.8202C20.8546 28.1541 21.3579 29.3782 21.1063 30.5652C20.8546 31.7522 19.9319 32.4199 19.0372 32.086C18.1704 31.7522 17.6391 30.5281 17.8908 29.3411Z" fill="#FFE800"/>
<path fill-rule="evenodd" clip-rule="evenodd" d="M48.9637 38.3407C49.2152 37.1496 48.7122 35.9212 47.818 35.5861C46.9238 35.2511 46.0017 35.9212 45.7502 37.1123C45.4987 38.3035 46.0017 39.5319 46.8959 39.8669C47.7901 40.1647 48.7122 39.4947 48.9637 38.3407Z" fill="#FFE800"/>
<path fill-rule="evenodd" clip-rule="evenodd" d="M16.7302 35.761C16.5802 34.5293 17.4801 33.4468 18.68 33.2975C19.9173 33.1482 21.0047 34.044 21.1547 35.2384C21.3046 36.4702 20.4048 37.5526 19.2049 37.7019C18.0051 37.8512 16.8802 36.9927 16.7302 35.761Z" fill="#FFE800"/>
<path fill-rule="evenodd" clip-rule="evenodd" d="M50.1263 31.9106C49.9764 30.6791 48.8892 29.8207 47.652 29.97C46.4148 30.1193 45.5525 31.2015 45.7025 32.4331C45.8524 33.6647 46.9397 34.5231 48.1768 34.3738C49.3765 34.2245 50.2763 33.1049 50.1263 31.9106Z" fill="#FFE800"/>
<path fill-rule="evenodd" clip-rule="evenodd" d="M19.2266 41.3062C18.6284 40.4951 19.0023 39.4882 20.0866 39.0407C21.171 38.5933 22.517 38.8729 23.1153 39.684C23.7135 40.4951 23.3396 41.5019 22.2553 41.9494C21.2083 42.3969 19.8249 42.0893 19.2266 41.3062Z" fill="#FFE800"/>
<path fill-rule="evenodd" clip-rule="evenodd" d="M47.6299 25.5454C47.0317 24.4659 45.6856 24.0936 44.6013 24.6893C43.5169 25.2849 43.143 26.625 43.7413 27.7045C44.3395 28.7841 45.6856 29.1564 46.7699 28.5607C47.8543 27.9651 48.2282 26.625 47.6299 25.5454Z" fill="#FFE800"/>
<path fill-rule="evenodd" clip-rule="evenodd" d="M35.2969 49.9056C36.2247 49.7563 36.8713 48.6739 36.7589 47.4421C36.6464 46.2104 35.8311 45.3519 34.9033 45.5012C33.9756 45.6505 33.329 46.733 33.4414 47.9647C33.5539 49.1591 34.3692 50.0549 35.2969 49.9056Z" fill="#FFE800"/>
<path fill-rule="evenodd" clip-rule="evenodd" d="M31.5608 16.6569C32.4886 16.5076 33.3041 17.4035 33.4165 18.5981C33.529 19.83 32.8542 20.9125 31.9544 21.0618C31.0546 21.2112 30.2111 20.3152 30.0986 19.1207C29.9862 17.9261 30.6329 16.8062 31.5608 16.6569Z" fill="#FFE800"/>
<path fill-rule="evenodd" clip-rule="evenodd" d="M29.0678 49.836C29.962 50.1699 30.8841 49.5022 31.1356 48.3152C31.3871 47.1282 30.8841 45.9041 29.9899 45.5702C29.0957 45.2364 28.1736 45.9041 27.9221 47.0911C27.6706 48.2781 28.1736 49.5022 29.0678 49.836Z" fill="#FFE800"/>
<path fill-rule="evenodd" clip-rule="evenodd" d="M38.5006 17.8332C39.6928 18.1672 40.3635 19.3921 40.0281 20.5798C39.6928 21.7676 38.4633 22.4357 37.271 22.1016C36.0788 21.7676 35.4081 20.5427 35.7434 19.355C36.0788 18.2043 37.3083 17.4991 38.5006 17.8332Z" fill="#FFE800"/>
<path fill-rule="evenodd" clip-rule="evenodd" d="M23.1451 46.1233C24.113 46.8672 25.4905 46.7184 26.2724 45.7513C27.017 44.7842 26.868 43.4079 25.9001 42.6267C24.9321 41.8828 23.5546 42.0316 22.7728 42.9987C21.9909 43.9658 22.1771 45.3421 23.1451 46.1233Z" fill="#FFE800"/>
<path fill-rule="evenodd" clip-rule="evenodd" d="M43.7252 20.4532C44.6966 21.1946 44.8461 22.6031 44.0988 23.5668C43.3516 24.5305 41.9319 24.6787 40.9604 23.9374C39.989 23.1961 39.8396 21.7876 40.5868 20.8239C41.3714 19.8602 42.7538 19.6749 43.7252 20.4532Z" fill="#FFE800"/>
<path fill-rule="evenodd" clip-rule="evenodd" d="M3.36943 48.7021C3.11954 46.5696 4.6546 44.6503 6.79654 44.4015C8.93848 44.1527 10.8662 45.681 11.1161 47.8135C11.366 49.946 9.83095 51.8653 7.68901 52.1141C5.54707 52.3629 3.61932 50.8346 3.36943 48.7021Z" fill="#FFE800"/>
<path fill-rule="evenodd" clip-rule="evenodd" d="M28.4248 24.5522C28.9577 24.2451 29.6308 24.4405 29.9394 24.9711C30.2479 25.5017 30.0516 26.1719 29.5186 26.479C28.9857 26.7862 28.3126 26.5907 28.004 26.0602C27.6955 25.5296 27.8918 24.8594 28.4248 24.5522Z" fill="#FFE800"/>
<path fill-rule="evenodd" clip-rule="evenodd" d="M24.8708 27.0387C25.4608 26.5657 26.5144 26.4822 27.2309 26.8718C27.9473 27.2613 28.0738 27.957 27.4837 28.43C26.8937 28.9031 25.8401 28.9865 25.1236 28.597C24.4072 28.2074 24.3229 27.5118 24.8708 27.0387Z" fill="#FFE800"/>
<path fill-rule="evenodd" clip-rule="evenodd" d="M41.971 40.4263C42.558 39.7167 42.4322 38.6733 41.7195 38.0889C41.0068 37.5046 39.9587 37.6298 39.3718 38.3394C38.7849 39.0489 38.9107 40.0924 39.6233 40.6767C40.378 41.261 41.426 41.1358 41.971 40.4263Z" fill="#FFE800"/>
<path fill-rule="evenodd" clip-rule="evenodd" d="M23.4439 30.7539C23.613 30.1648 24.2329 29.8281 24.8246 29.9965C25.4164 30.1648 25.7545 30.782 25.5854 31.3711C25.4164 31.9602 24.7965 32.2969 24.2047 32.1285C23.613 31.9602 23.2748 31.343 23.4439 30.7539Z" fill="#FFE800"/>
<path fill-rule="evenodd" clip-rule="evenodd" d="M43.4136 36.5176C43.5826 35.6339 43.2445 34.7081 42.6528 34.4556C42.061 34.2031 41.4411 34.7081 41.272 35.5918C41.103 36.4755 41.4411 37.4013 42.0328 37.6538C42.6246 37.9062 43.2445 37.4013 43.4136 36.5176Z" fill="#FFE800"/>
<path fill-rule="evenodd" clip-rule="evenodd" d="M23.4105 34.5189C23.3266 33.9051 23.7739 33.375 24.3889 33.2913C25.0039 33.2077 25.535 33.654 25.6188 34.2678C25.7027 34.8815 25.2554 35.4116 24.6405 35.4953C24.0534 35.5511 23.4944 35.1047 23.4105 34.5189Z" fill="#FFE800"/>
<path fill-rule="evenodd" clip-rule="evenodd" d="M43.4469 32.5378C43.3629 31.6152 42.8305 30.9861 42.2142 31.07C41.5978 31.1958 41.1775 31.9926 41.2335 32.9153C41.3176 33.8379 41.8499 34.467 42.4663 34.3831C43.0827 34.2573 43.531 33.4605 43.4469 32.5378Z" fill="#FFE800"/>
<path fill-rule="evenodd" clip-rule="evenodd" d="M24.6613 39.0902C24.3527 38.2944 24.5491 37.2891 25.082 36.8283C25.6149 36.3676 26.2881 36.6608 26.5966 37.4566C26.9051 38.2525 26.7088 39.2578 26.1759 39.7185C25.643 40.1793 24.9698 39.8861 24.6613 39.0902Z" fill="#FFE800"/>
<path fill-rule="evenodd" clip-rule="evenodd" d="M43.2372 28.5816C42.7744 27.7858 41.7646 27.4926 40.9653 27.9533C40.1659 28.4141 39.8714 29.4194 40.3342 30.2152C40.797 31.0111 41.8067 31.3043 42.6061 30.8435C43.4055 30.3828 43.7 29.3775 43.2372 28.5816Z" fill="#FFE800"/>
<path fill-rule="evenodd" clip-rule="evenodd" d="M34.6694 44.3599C35.2872 44.2343 35.7084 43.4393 35.6523 42.5188C35.568 41.5983 35.0344 40.9707 34.4166 41.0543C33.7988 41.1799 33.3776 41.9749 33.4337 42.8954C33.4899 43.8159 34.0515 44.4854 34.6694 44.3599Z" fill="#FFE800"/>
<path fill-rule="evenodd" clip-rule="evenodd" d="M32.1858 23.3069C32.8022 23.2235 33.3346 23.6687 33.4186 24.281C33.5027 24.8933 33.0544 25.4221 32.438 25.5056C31.8216 25.589 31.2893 25.1438 31.2052 24.5315C31.1492 23.947 31.5694 23.3904 32.1858 23.3069Z" fill="#FFE800"/>
<path fill-rule="evenodd" clip-rule="evenodd" d="M30.8903 43.2223C31.482 43.3906 32.1019 43.054 32.271 42.4648C32.4401 41.8757 32.1019 41.2585 31.5102 41.0902C30.9184 40.9219 30.2985 41.2585 30.1295 41.8477C29.9604 42.4368 30.2985 43.054 30.8903 43.2223Z" fill="#FFE800"/>
<path fill-rule="evenodd" clip-rule="evenodd" d="M36.6793 23.3619C37.5669 23.6144 38.0741 24.5401 37.8205 25.4238C37.5669 26.3075 36.6371 26.8125 35.7495 26.56C34.8619 26.3075 34.3546 25.3817 34.6083 24.4981C34.8619 23.6144 35.7917 23.1094 36.6793 23.3619Z" fill="#FFE800"/>
<path fill-rule="evenodd" clip-rule="evenodd" d="M27.1659 41.7861C27.6392 42.3704 28.3351 42.2452 28.7248 41.5356C29.1146 40.8261 29.0311 39.7826 28.5578 39.1983C28.0846 38.614 27.3886 38.7392 26.9989 39.4487C26.6092 40.2 26.6649 41.2435 27.1659 41.7861Z" fill="#FFE800"/>
<path fill-rule="evenodd" clip-rule="evenodd" d="M39.6987 25.752C40.1739 26.1436 40.2577 26.8429 39.8664 27.3185C39.4752 27.794 38.7764 27.8779 38.3013 27.4863C37.8262 27.0947 37.7423 26.3954 38.1336 25.9198C38.5249 25.4443 39.2236 25.3884 39.6987 25.752Z" fill="#FFE800"/>
<path fill-rule="evenodd" clip-rule="evenodd" d="M88.2258 21.3226L90.8559 1.32258H96.1719V29.5161H92.5346V9.25807L89.9046 29.4516H86.2673L83.4134 9.51613V29.4516H80.056V1.32258H85.372L88.2258 21.3226ZM98.9698 1.32258H102.831V29.5161H98.9698V1.32258ZM116.709 18.9355V22.6774C116.709 24.9355 116.205 26.7419 115.254 27.9032C114.302 29.129 112.847 29.7097 111.001 29.7097C109.098 29.7097 107.699 29.129 106.748 27.9032C105.797 26.6774 105.293 24.9355 105.293 22.6774V8.03226C105.293 5.77419 105.797 3.96774 106.748 2.80645C107.699 1.58065 109.154 1 111.001 1C112.903 1 114.302 1.58065 115.254 2.80645C116.205 4.03226 116.709 5.77419 116.709 8.03226V10.7419H113.071V7.70968C113.071 6.67742 112.903 5.96774 112.512 5.58065C112.176 5.19355 111.672 4.93549 111.057 4.93549C110.441 4.93549 109.994 5.12903 109.602 5.58065C109.266 5.96774 109.042 6.74194 109.042 7.70968V22.9355C109.042 23.9677 109.21 24.6774 109.602 25.0645C109.938 25.4516 110.441 25.6452 111.057 25.6452C111.672 25.6452 112.12 25.4516 112.512 25.0645C112.847 24.6774 113.071 23.9677 113.071 22.9355V18.9355H116.709ZM118.107 1.32258H129.971V5.32258H125.942V29.4516H122.081V5.32258H118.052V1.32258H118.107ZM135.566 13.1935H140.826V17.1935H135.566V25.4516H142.225V29.4516H131.761V1.32258H142.225V5.32258H135.566V13.1935ZM147.43 1.32258V12.1613C147.43 13.1935 147.597 13.9032 147.989 14.2903C148.325 14.6774 148.829 14.871 149.444 14.871C150.004 14.871 150.507 14.6774 150.843 14.3548C151.179 13.9677 151.403 13.3871 151.459 12.4839V1.32258H155.32V29.5161H151.459V18.6129C151.123 18.7419 150.787 18.8065 150.451 18.871C150.116 18.9355 149.724 18.9355 149.332 18.9355C147.43 18.9355 146.031 18.3548 145.079 17.129C144.128 15.9032 143.624 14.1613 143.624 11.9032V1.32258H147.43ZM163.098 18.2258L161.923 20.8065V29.4516H158.062V1.32258H161.923V13.5806L167.015 1.32258H170.764L165.448 13.8387L170.764 29.4516H166.791L163.098 18.2258ZM176.024 23C176.024 24.0323 176.192 24.7419 176.584 25.129C176.919 25.5161 177.423 25.7742 178.039 25.7742C178.654 25.7742 179.102 25.5806 179.494 25.129C179.829 24.7419 180.053 23.9677 180.053 23V7.77419C180.053 6.74193 179.885 6.03226 179.494 5.64516C179.158 5.25806 178.654 5 178.039 5C177.423 5 176.975 5.19355 176.584 5.64516C176.248 6.03226 176.024 6.80645 176.024 7.77419V23ZM172.163 8.03226C172.163 5.77419 172.667 3.96774 173.674 2.80645C174.681 1.58065 176.136 1 177.983 1C179.885 1 181.284 1.58065 182.291 2.80645C183.299 4.03226 183.802 5.77419 183.802 8.03226V22.6774C183.802 24.9355 183.299 26.7419 182.291 27.9032C181.284 29.129 179.829 29.7097 177.983 29.7097C176.08 29.7097 174.681 29.129 173.674 27.9032C172.667 26.6774 172.163 24.9355 172.163 22.6774V8.03226ZM83.8611 63.7742H88.2258V39.6452H92.1429V63.7742H94.1014V71H90.1844V67.7742H80V39.6452H83.8611V63.7742ZM99.3615 51.5161H104.622V55.5161H99.3615V63.7742H106.021V67.7742H95.5564V39.6452H106.021V43.6452H99.3615V51.5161ZM112.12 67.8387H108.259V39.6452H112.12V51.7097H116.485V39.6452H120.402V67.8387H116.485V55.7742H112.12V67.8387ZM122.136 39.6452H134V43.6452H129.971V67.7742H126.109V43.6452H122.081V39.6452H122.136ZM141.386 39.6452C143.345 39.6452 144.744 40.2258 145.695 41.3871C146.646 42.5484 147.094 44.2903 147.094 46.6129V50.2903C147.094 52.5484 146.646 54.2903 145.695 55.5161C144.744 56.6774 143.289 57.2581 141.386 57.2581H139.595V67.8387H135.734V39.6452H141.386ZM139.595 43.6452V53.1935H141.386C142.002 53.1935 142.449 53 142.785 52.6129C143.121 52.2258 143.289 51.5161 143.289 50.5484V46.2903C143.289 45.2581 143.121 44.5484 142.785 44.2258C142.449 43.8387 142.002 43.6452 141.386 43.6452H139.595ZM161.251 67.8387H157.39L156.719 62.7419H152.018L151.347 67.8387H147.821L151.738 39.6452H157.334L161.251 67.8387ZM152.522 58.871H156.215L154.368 44.6129L152.522 58.871ZM173.786 43.6452H169.309V60.8065C169.309 62.2258 169.141 63.3871 168.862 64.2903C168.582 65.1935 168.134 65.9032 167.63 66.4193C167.127 66.9355 166.511 67.3226 165.84 67.5161C165.168 67.7097 164.497 67.8387 163.769 67.8387C163.434 67.8387 163.098 67.8387 162.818 67.8387C162.538 67.8387 162.258 67.8387 161.923 67.7742V63.7742C162.147 63.7742 162.37 63.8387 162.594 63.8387C162.818 63.8387 163.042 63.8387 163.266 63.8387C163.881 63.8387 164.385 63.6452 164.833 63.3226C165.28 63 165.504 62.2258 165.504 61.129V39.6452H177.647V67.8387H173.786V43.6452ZM186.097 63.7742C186.712 63.7742 187.16 63.5806 187.496 63.1935C187.831 62.8064 187.999 62.0968 187.999 61.129V56.871C187.999 55.8387 187.831 55.129 187.496 54.8065C187.16 54.4194 186.712 54.2258 186.097 54.2258H184.306V63.7742H186.097ZM180.445 67.8387V39.6452H184.306V50.2258H186.097C188.055 50.2258 189.454 50.8064 190.405 51.9677C191.357 53.129 191.804 54.871 191.804 57.1935V60.871C191.804 63.129 191.357 64.871 190.405 66.0968C189.454 67.2581 187.999 67.8387 186.097 67.8387H180.445ZM197.4 67.8387H193.595V39.6452H197.456V51.7097H201.821V39.6452H205.738V67.8387H201.821V55.7742H197.456V67.8387H197.4ZM212.341 51.5161H217.601V55.5161H212.341V63.7742H219V67.7742H208.536V39.6452H219V43.6452H212.341V51.5161Z" fill="#007D39"/>
</svg>
