<svg width="39" height="43" viewBox="0 0 39 43" fill="none" xmlns="http://www.w3.org/2000/svg">
<path d="M2.6377 24.9331C-0.0289621 23.3935 -0.0289678 19.5445 2.6377 18.0049L32.3686 0.839716C35.0353 -0.699884 38.3686 1.22461 38.3686 4.30382L38.3686 38.6341C38.3686 41.7133 35.0353 43.6378 32.3686 42.0982L2.6377 24.9331Z" fill="#0abab5"/>
</svg>
