<svg width="1920" height="1080" viewBox="0 0 1920 1080" fill="none" xmlns="http://www.w3.org/2000/svg">
<rect width="1920" height="1080" fill="white"/>
<path d="M376.5 177V24H977.5V164.5H699V252.5H673.5V357H627.5V306.5H352V317H301V177H376.5Z" fill="white" stroke="black"/>
<path d="M302 465V326H352.5V336H621V625.5H375V465H302Z" fill="white" stroke="black"/>
<path d="M958.5 571V326H1000V252.5H1134V326H1290V571H958.5Z" fill="white" stroke="black"/>
<path d="M1298 648V326H1471.5V252.5H1604.5V997H1444.5V1070H1306.5V1020.5H1317V648H1298Z" fill="white" stroke="black"/>
<path d="M375 997V634H620V659H700V1021.5H707V1070H568V997H375Z" fill="white" stroke="black"/>
<path d="M722.5 1020.5V673.5L1000 673V997.5H853.5V1069.5H716.5V1020.5H722.5Z" fill="white" stroke="black"/>
<path d="M1009 997.5V673L1286.5 673.5V1020.5H1297.5V1071.5H1160.5V997.5H1009Z" fill="white" stroke="black"/>
</svg>
