<svg width="1920" height="1080" viewBox="0 0 1920 1080" fill="none" xmlns="http://www.w3.org/2000/svg">
<rect width="1920" height="1080" fill="white"/>
<path d="M274.5 882.5V98H432V503H532.5V590H558V735H673.5V883H606.5V974.5H439V882.5H274.5Z" fill="white" stroke="black"/>
<path d="M443.5 472.5V95.5H605.5V3H774V66.5H766V472.5H443.5Z" fill="white" stroke="black"/>
<path d="M785 67V4L945.5 5V94H1116V474H793.5V67H785Z" fill="white" stroke="black"/>
<path d="M1129 472.5V95H1318V69H1649V472.5H1129Z" fill="white" stroke="black"/>
<path d="M1646 680.5V503H1268V598H1161V773.5L1208.5 821H1672V680.5H1646Z" fill="white" stroke="black"/>
<path d="M1671 1047.5V832.5H1203L1148.5 778V601H867V971L1060.5 975.5V1047.5H1671Z" fill="white" stroke="black"/>
</svg>
