<svg width="1920" height="1080" viewBox="0 0 1920 1080" fill="none" xmlns="http://www.w3.org/2000/svg">
<rect width="1920" height="1080" fill="white"/>
<path d="M409 837V403H58V433L2.5 462.5V666L58 695.5V837H409Z" fill="#C4C4C4" stroke="black"/>
<path d="M1602.5 529V936H1716.5L1752.5 871H1905V529H1602.5Z" fill="#C4C4C4" stroke="black"/>
<path d="M1597.5 121.5L1568 175.5L1562.5 184H1537.5V440.5H1749.5V526.5H1905.5V184H1712L1677.5 121.5H1597.5Z" fill="#C4C4C4" stroke="black"/>
<path d="M57 401.5V92.5H753V256.5H549.5V345H495.5V438.5H409.5V401.5H57Z" fill="#C4C4C4" stroke="black"/>
<path d="M754.5 184.5H1010.5V866.5H885.5L850.5 802H822.5V441H608.5V345H551V256.5H754.5V184.5Z" fill="#C4C4C4" stroke="black"/>
<path d="M1011.5 865V184.5H1221.5L1254.5 121H1335L1370.5 184.5H1394.5V331H1295V441H1254.5V529.5H1167V865H1011.5Z" fill="#C4C4C4" stroke="black"/>
<path d="M1601 937V530H1167.5V866.5H1449.5L1488 937H1601Z" fill="#C4C4C4" stroke="black"/>
<path d="M58 1001.5V837.5H411V598H584V634H684.5V753.5H750.5V1001.5H58Z" fill="#C4C4C4" stroke="black"/>
</svg>
