<svg width="147" height="150" viewBox="0 0 147 150" fill="none" xmlns="http://www.w3.org/2000/svg">
<path d="M145 75C145 115.355 112.95 148 73.5 148C34.0495 148 2 115.355 2 75C2 34.6449 34.0495 2 73.5 2C112.95 2 145 34.6449 145 75Z" stroke="#0abab5" stroke-width="4"/>
<path d="M88.0763 41.0007C87.3294 41.0015 86.6213 41.5714 86.4599 42.3012C86.2985 43.031 86.7002 43.8466 87.377 44.1629C94.9637 47.9927 102.831 49.4288 109.677 50.9538V78.9987C108.847 83.9004 107.11 88.1449 104.963 91.5696C104.419 92.301 104.639 93.4783 105.41 93.964C106.18 94.4498 107.336 94.1391 107.76 93.3322C110.147 89.5245 112.069 84.8381 112.966 79.4394C113.022 69.5311 112.992 59.5613 112.992 49.6319C112.987 48.8891 112.421 48.1874 111.697 48.0249C104.442 46.36 96.3609 44.959 88.8792 41.1821C88.6323 41.0557 88.3534 40.9927 88.0763 41.0007ZM72.1479 41.0265C71.8657 41.0694 71.5951 41.1867 71.3709 41.3635C61.6142 49.0026 51.0837 50.4315 41.3531 52.6645C40.6204 52.8289 40.0517 53.5461 40.0581 54.2974C40.201 64.3256 39.8474 74.4107 40.084 84.4159C41.7134 94.2224 46.166 101.302 52.0238 106.033C57.8816 110.763 65.0852 113.161 72.1997 113.99C72.3201 114.003 72.4419 114.003 72.5623 113.99C79.6768 113.161 86.8804 110.763 92.7382 106.033C98.596 101.302 103.049 94.2224 104.678 84.4159C104.734 74.4039 104.704 64.3305 104.704 54.2974C104.71 53.5461 104.142 52.8289 103.409 52.6645C93.6783 50.4315 83.1478 49.0026 73.3911 41.3636C73.0437 41.0918 72.5849 40.9674 72.1479 41.0265ZM72.381 44.6813C82.143 51.9026 92.4549 53.6422 101.389 55.6193V83.9752C99.8618 93.0188 95.8705 99.2171 90.6404 103.441C85.4365 107.643 78.9551 109.88 72.381 110.672C65.8069 109.88 59.3255 107.643 54.1217 103.441C48.8915 99.2171 44.9002 93.0188 43.3732 83.9752V55.6193C52.3071 53.6422 62.619 51.9026 72.381 44.6813ZM82.1711 69.2011C81.8034 69.2409 81.4506 69.4081 81.1869 69.6677L68.3924 81.8499L63.5751 77.262C62.9445 76.6649 61.8278 76.6958 61.2311 77.3268C60.6344 77.9578 60.6653 79.0754 61.2959 79.6725L67.2528 85.3488C67.8635 85.9399 68.9473 85.9399 69.5579 85.3488L83.4661 72.0782C83.98 71.6109 84.148 70.8025 83.8628 70.1689C83.5777 69.5354 82.8613 69.1256 82.1711 69.2011Z" fill="black"/>
<path d="M61.5122 77.6788L68.1777 84.0695L82.6078 70.4639" stroke="#0abab5" stroke-width="4" stroke-linecap="round" stroke-linejoin="round"/>
</svg>
