<svg width="147" height="150" viewBox="0 0 147 150" fill="none" xmlns="http://www.w3.org/2000/svg">
<path d="M145 75C145 115.355 112.95 148 73.5 148C34.0495 148 2 115.355 2 75C2 34.6449 34.0495 2 73.5 2C112.95 2 145 34.6449 145 75Z" stroke="#0abab5" stroke-width="4"/>
<path d="M105.621 72.9723V78.1268H104.183C102.881 78.1268 101.656 78.6367 100.741 79.5599C99.8204 80.4856 99.3108 81.7147 99.3108 83.0223V90.2924H86.8568C86.316 88.0224 84.2958 86.3226 81.8778 86.3226C80.8924 86.3226 79.9824 86.6129 79.1998 87.1045L73.2952 81.1655H96.8226V71.908H99.2744V51H30L40.8888 61.9522V81.1655H69.936L77.5202 88.7887C77.034 89.5758 76.7428 90.4885 76.7428 91.4822C76.7428 94.3327 79.049 96.6497 81.8804 96.6497C84.2984 96.6497 86.3212 94.9551 86.8594 92.6747H99.3134V99.9474C99.3134 101.255 99.8178 102.487 100.743 103.41C101.664 104.336 102.881 104.84 104.181 104.846H104.186H105.624V110H108V104.84V78.1268V72.9723H105.621ZM96.898 53.3955V69.523H51.7698L35.7382 53.3955H96.898ZM43.2652 64.3476L50.787 71.9132H94.4462V78.7779H43.2652V64.3476ZM81.8778 94.2674C80.3568 94.2674 79.1192 93.0199 79.1192 91.4901C79.1192 89.9602 80.3594 88.7128 81.8778 88.7128C83.3962 88.7128 84.6364 89.9576 84.6364 91.4875C84.6364 93.0199 83.3962 94.2674 81.8778 94.2674ZM104.183 102.463C103.515 102.458 102.888 102.196 102.418 101.731C101.942 101.252 101.687 100.625 101.687 99.9553V83.0197C101.687 82.3502 101.947 81.7199 102.418 81.2466C102.888 80.7733 103.515 80.5144 104.183 80.5144H105.621V102.463H104.183Z" fill="black"/>
<path d="M38 66H36V78H38V66Z" fill="black"/>
<circle cx="81.8561" cy="91.4489" r="3.74824" stroke="#0abab5" stroke-width="3"/>
</svg>
