<svg width="51" height="13" viewBox="0 0 51 13" fill="none" xmlns="http://www.w3.org/2000/svg">
<path d="M29.7344 3.84534C30.1128 3.67884 30.4711 3.47197 30.8596 3.36601C32.3228 2.98254 33.7759 3.58297 34.7043 4.92511C35.3149 5.80304 35.5419 6.79199 35.5268 7.85661C35.5167 8.97674 35.1736 9.96568 34.447 10.8184C33.6498 11.7569 32.6457 12.2614 31.3944 12.1706C30.8192 12.1302 30.2945 11.9436 29.8555 11.5601C29.7849 11.4995 29.7193 11.444 29.6385 11.3785C29.578 11.4541 29.5275 11.5197 29.4771 11.5853C29.1239 12.0445 28.6597 12.2211 28.0996 12.0949C27.5345 11.9688 27.3226 11.5248 27.2217 11.0152C27.1813 10.8083 27.1662 10.5964 27.1662 10.3895C27.1611 7.68506 27.1561 4.97556 27.1712 2.27111C27.1712 1.94315 27.2318 1.60004 27.3276 1.28722C27.4841 0.777608 27.8625 0.535418 28.4175 0.525327C28.9876 0.515236 29.3812 0.757426 29.5528 1.26199C29.6486 1.54454 29.6991 1.84728 29.7142 2.14497C29.7394 2.66467 29.7193 3.18941 29.7243 3.70911C29.7243 3.76461 29.7344 3.82012 29.7344 3.84534ZM33.0696 7.73047C33.0544 7.21077 32.9686 6.70621 32.681 6.24706C32.0201 5.20262 30.6527 5.17739 29.9514 6.19156C29.6133 6.68603 29.5275 7.24609 29.5376 7.82129C29.5477 8.26531 29.6234 8.70427 29.8555 9.10288C30.5114 10.2482 32.01 10.2785 32.7012 9.15333C32.9686 8.71941 33.0544 8.24008 33.0696 7.73047Z" fill="#39393A"/>
<path d="M18.3311 7.8465C18.866 6.37318 19.3756 4.96545 19.8902 3.55772C20.1425 2.86647 20.3897 2.17018 20.6521 1.47893C20.7984 1.09546 20.9851 0.722083 21.414 0.595943C21.8832 0.459711 22.3525 0.479894 22.746 0.812905C23.1749 1.17619 23.19 1.68075 23.074 2.16008C22.9529 2.66969 22.741 3.15912 22.5442 3.65359C21.5906 6.07044 20.6319 8.49234 19.6682 10.9041C19.5774 11.1362 19.4664 11.3683 19.3301 11.5752C18.8256 12.322 17.7408 12.3018 17.2564 11.5399C17.1151 11.3128 17.0092 11.0606 16.9133 10.8133C15.8234 8.10382 14.7336 5.39937 13.6488 2.68987C13.5025 2.32154 13.3864 1.94817 13.4823 1.53947C13.5983 1.02987 14.0121 0.621171 14.5267 0.540441C15.1271 0.444574 15.5308 0.61108 15.7932 1.1661C16.0808 1.78166 16.3078 2.42246 16.545 3.0582C17.1202 4.59207 17.6853 6.12594 18.2504 7.65981C18.2706 7.70522 18.2908 7.75063 18.3311 7.8465Z" fill="#39393A"/>
<path d="M38.3478 8.44189C38.5496 9.12809 38.9785 9.54688 39.594 9.75879C40.2449 9.9808 40.8907 9.87484 41.5114 9.63265C41.8999 9.48128 42.2833 9.30469 42.6718 9.14323C43.0654 8.97672 43.4186 9.0625 43.7213 9.34505C44.0291 9.63265 44.0644 10.006 43.9585 10.3945C43.8576 10.7629 43.6053 11.0202 43.3126 11.2422C42.5962 11.7871 41.7788 12.0596 40.8907 12.1504C39.6142 12.2816 38.4285 12.0646 37.4194 11.2069C36.491 10.4198 35.9713 9.42074 35.8754 8.1997C35.7341 6.42868 36.2841 4.94527 37.7776 3.93615C40.0683 2.38714 43.5145 3.44672 44.13 6.62546C44.1805 6.87774 44.1906 7.14516 44.1906 7.40249C44.1956 8.11392 43.8979 8.4217 43.1865 8.43684C42.4902 8.45198 41.7889 8.44189 41.0926 8.44189C40.2752 8.44189 39.4628 8.44189 38.6454 8.44189C38.5698 8.44189 38.4789 8.44189 38.3478 8.44189ZM38.2922 6.93829C38.3831 6.93829 38.4739 6.93829 38.5597 6.93829C39.5385 6.93829 40.5224 6.93829 41.5013 6.93829C41.8797 6.93829 41.8847 6.92315 41.7889 6.55482C41.5618 5.70212 40.7999 5.18242 39.9068 5.26819C39.034 5.35397 38.3276 6.0654 38.2922 6.93829Z" fill="#39393A"/>
<path d="M0.823242 3.25494C0.823242 2.7857 0.984702 2.44764 1.24707 2.18527C1.54981 1.88253 1.87778 1.60502 2.23097 1.36788C2.68508 1.06514 3.07359 1.13073 3.4066 1.55961C3.84557 2.12977 4.2694 2.71506 4.668 3.31549C5.02624 3.85537 4.93542 4.30947 4.42581 4.70303C3.8708 5.13191 3.67402 5.2631 4.08776 6.15113C4.69323 7.46299 5.61153 8.45697 6.99908 8.95649C7.58437 9.16841 7.75592 9.10281 8.14948 8.62853C8.31094 8.43679 8.50267 8.24506 8.72468 8.12396C8.98201 7.98269 9.2797 8.04323 9.51684 8.20469C10.1728 8.6588 10.8237 9.1129 11.4594 9.59728C11.7924 9.85461 11.8429 10.2128 11.641 10.5963C11.3787 11.0908 11.0255 11.5197 10.5613 11.8426C10.1627 12.1201 9.7439 12.1907 9.27465 12.0091C5.96977 10.7325 3.32587 8.69412 1.74154 5.44978C1.43881 4.82413 1.16634 4.18333 0.888835 3.54759C0.843425 3.43658 0.833333 3.3054 0.823242 3.25494Z" fill="#39393A"/>
<path d="M47.2835 4.0774C47.6669 3.85539 48.01 3.60311 48.3885 3.4467C49.0898 3.16414 49.7558 3.38615 50.1141 3.95126C50.437 4.46087 50.3764 5.00579 49.8769 5.35394C49.5187 5.60622 49.0948 5.76768 48.6962 5.95942C48.449 6.08051 48.1866 6.17133 47.9394 6.29747C47.5963 6.47407 47.4298 6.77176 47.4247 7.15523C47.4096 8.12903 47.4046 9.10284 47.3793 10.0766C47.3692 10.45 47.3541 10.8335 47.2683 11.1968C47.122 11.7972 46.7184 12.0848 46.123 12.0999C45.5427 12.11 45.129 11.8123 44.9625 11.217C44.8818 10.9193 44.8363 10.6064 44.8313 10.2986C44.8212 8.58314 44.8212 6.87267 44.8313 5.15716C44.8313 4.85947 44.8818 4.55169 44.9524 4.26409C45.2249 3.19442 46.4509 3.16919 46.9908 3.73934C47.1018 3.85539 47.2027 3.98153 47.2835 4.0774Z" fill="#39393A"/>
<path d="M23.7454 7.99784C23.7454 7.23091 23.7303 6.46902 23.7505 5.70208C23.7606 5.36403 23.8009 5.01588 23.8918 4.68791C24.0381 4.15308 24.4115 3.91089 24.9867 3.91089C25.5215 3.91089 25.8898 4.15812 26.0311 4.68287C26.1219 5.02092 26.1673 5.37412 26.1724 5.72227C26.1875 7.241 26.1875 8.76477 26.1724 10.2835C26.1673 10.6417 26.1169 11.005 26.0261 11.3481C25.8898 11.8476 25.5064 12.105 24.9917 12.11C24.4821 12.1201 24.0784 11.8779 23.922 11.3935C23.8161 11.0555 23.7606 10.6872 23.7505 10.334C23.7253 9.56198 23.7454 8.77991 23.7454 7.99784Z" fill="#39393A"/>
<path d="M26.3443 1.85739C26.3443 2.59405 25.7539 3.18944 25.0223 3.18944C24.2756 3.18439 23.6802 2.58901 23.6802 1.84226C23.6802 1.10055 24.2806 0.515259 25.0374 0.515259C25.7741 0.520304 26.3443 1.1056 26.3443 1.85739Z" fill="#39393A"/>
<path d="M6.66553 0.585856C9.24889 0.676677 11.4841 2.39219 11.9584 5.07141C12.029 5.48515 12.0694 5.90394 12.0997 6.31768C12.1249 6.62546 12.0088 6.77178 11.7969 6.77683C11.585 6.77683 11.4791 6.6406 11.4791 6.32272C11.474 5.48011 11.3327 4.66272 10.9594 3.91092C10.2227 2.43255 9.01175 1.5748 7.39715 1.27711C7.10955 1.22665 6.8169 1.19638 6.52426 1.18124C6.31234 1.17115 6.15593 1.11565 6.13574 0.883548C6.12061 0.69686 6.28207 0.585856 6.54444 0.580811C6.58985 0.585856 6.64031 0.585856 6.66553 0.585856Z" fill="#39393A"/>
<path d="M10.657 5.62141C10.657 5.70719 10.657 5.78792 10.657 5.87369C10.6621 6.07047 10.5763 6.21175 10.3694 6.21175C10.1525 6.2168 10.0717 6.07047 10.0566 5.8636C10.0364 5.58105 10.0263 5.29345 9.96578 5.01594C9.69836 3.79995 8.75987 2.90687 7.53379 2.68991C7.32692 2.65459 7.12005 2.62432 6.91318 2.59404C6.71135 2.56881 6.6054 2.46286 6.63062 2.25599C6.65585 2.04407 6.80722 1.98352 6.99391 1.99866C8.62869 2.1248 10.0566 2.99265 10.5359 4.75357C10.6116 5.03612 10.6368 5.32877 10.6823 5.61637C10.6722 5.62141 10.6621 5.62141 10.657 5.62141Z" fill="#39393A"/>
<path d="M7.45843 3.46187C8.47765 3.477 9.32531 4.38522 9.26476 5.4347C9.25467 5.60626 9.16385 5.72735 8.9923 5.74753C8.80561 5.76267 8.69461 5.64662 8.65929 5.47002C8.62901 5.3237 8.62901 5.17233 8.59369 5.02601C8.47765 4.50126 8.10427 4.16825 7.56439 4.10266C7.4887 4.09257 7.41807 4.07743 7.34238 4.06734C7.15065 4.04211 7.01946 3.95129 7.03964 3.74442C7.05478 3.52241 7.21119 3.45178 7.45843 3.46187Z" fill="#39393A"/>
</svg>
